#
# There is insufficient memory for the Java Runtime Environment to continue.
# Native memory allocation (malloc) failed to allocate 32744 bytes for ChunkPool::allocate
# Possible reasons:
#   The system is out of physical RAM or swap space
#   The process is running with CompressedOops enabled, and the Java Heap may be blocking the growth of the native heap
# Possible solutions:
#   Reduce memory load on the system
#   Increase physical memory or swap space
#   Check if swap backing store is full
#   Decrease Java heap size (-Xmx/-Xms)
#   Decrease number of Java threads
#   Decrease Java thread stack sizes (-Xss)
#   Set larger code cache with -XX:ReservedCodeCacheSize=
#   JVM is running with Unscaled Compressed Oops mode in which the Java heap is
#     placed in the first 4GB address space. The Java Heap base address is the
#     maximum limit for the native heap growth. Please use -XX:HeapBaseMinAddress
#     to set the Java Heap base and to place the Java Heap above 4GB virtual address.
# This output file may be truncated or incomplete.
#
#  Out of Memory Error (allocation.cpp:272), pid=8936, tid=0x00000000000028b4
#
# JRE version: OpenJDK Runtime Environment (8.0_242-b01) (build 1.8.0_242-release-1644-b01)
# Java VM: OpenJDK 64-Bit Server VM (25.242-b01 mixed mode windows-amd64 compressed oops)
# Failed to write core dump. Minidumps are not enabled by default on client versions of Windows
#

---------------  T H R E A D  ---------------

Current thread (0x00000000172fa800):  JavaThread "C2 CompilerThread1" daemon [_thread_in_native, id=10420, stack(0x0000000018a40000,0x0000000018b40000)]

Stack: [0x0000000018a40000,0x0000000018b40000]
[error occurred during error reporting (printing stack bounds), id 0xc0000005]

Native frames: (J=compiled Java code, j=interpreted, Vv=VM code, C=native code)


Current CompileTask:
C2: 753972 17438       4       com.android.tools.r8.graph.H0::a (117 bytes)


---------------  P R O C E S S  ---------------

Java Threads: ( => current thread )
  0x000000001b727000 JavaThread "WorkerExecutor Queue Thread 4" [_thread_blocked, id=10136, stack(0x00000000249a0000,0x0000000024aa0000)]
  0x000000001b724800 JavaThread "WorkerExecutor Queue Thread 3" [_thread_blocked, id=5532, stack(0x00000000248a0000,0x00000000249a0000)]
  0x000000001b727800 JavaThread "WorkerExecutor Queue Thread 2" [_thread_blocked, id=11928, stack(0x00000000242a0000,0x00000000243a0000)]
  0x000000001b72a800 JavaThread "WorkerExecutor Queue" [_thread_blocked, id=4316, stack(0x00000000241a0000,0x00000000242a0000)]
  0x000000001b72a000 JavaThread "Cache worker for Java compile cache (F:\Android\Android_repos\Protein\.gradle\6.1.1\javaCompile)" [_thread_blocked, id=4968, stack(0x00000000240a0000,0x00000000241a0000)]
  0x000000001b729000 JavaThread "Cache worker for execution history cache (F:\Android\Android_repos\Protein\.gradle\6.1.1\executionHistory)" [_thread_blocked, id=1460, stack(0x0000000023ba0000,0x0000000023ca0000)]
  0x000000001b726000 JavaThread "Execution worker for ':' Thread 3" [_thread_blocked, id=5028, stack(0x00000000238a0000,0x00000000239a0000)]
  0x000000001b725800 JavaThread "Execution worker for ':' Thread 2" [_thread_blocked, id=6148, stack(0x00000000237a0000,0x00000000238a0000)]
  0x000000001b72b800 JavaThread "Execution worker for ':'" [_thread_in_native, id=420, stack(0x00000000236a0000,0x00000000237a0000)]
  0x000000001fda3000 JavaThread "Cache worker for file content cache (F:\Android\Android_repos\Protein\.gradle\6.1.1\fileContent)" [_thread_blocked, id=4884, stack(0x00000000233a0000,0x00000000234a0000)]
  0x000000001fd9c800 JavaThread "Cache worker for Build Output Cleanup Cache (F:\Android\Android_repos\Protein\.gradle\buildOutputCleanup)" [_thread_blocked, id=8336, stack(0x00000000232a0000,0x00000000233a0000)]
  0x000000001fda3800 JavaThread "Build operations Thread 4" [_thread_blocked, id=6484, stack(0x0000000022fa0000,0x00000000230a0000)]
  0x000000001fda0000 JavaThread "Build operations Thread 3" [_thread_blocked, id=8784, stack(0x00000000212d0000,0x00000000213d0000)]
  0x000000001fd9e000 JavaThread "Build operations Thread 2" [_thread_blocked, id=8472, stack(0x0000000020bd0000,0x0000000020cd0000)]
  0x000000001fd9d800 JavaThread "Build operations" [_thread_blocked, id=2588, stack(0x0000000020ad0000,0x0000000020bd0000)]
  0x000000001fd9f000 JavaThread "Cache worker for cache directory md-rule (C:\Users\zvona\.gradle\caches\6.1.1\md-rule)" [_thread_blocked, id=10432, stack(0x00000000209d0000,0x0000000020ad0000)]
  0x000000001fda1800 JavaThread "Cache worker for cache directory md-supplier (C:\Users\zvona\.gradle\caches\6.1.1\md-supplier)" [_thread_blocked, id=9988, stack(0x00000000208d0000,0x00000000209d0000)]
  0x000000001fd95000 JavaThread "Cache worker for file hash cache (F:\Android\Android_repos\Protein\.gradle\6.1.1\fileHashes)" [_thread_blocked, id=6024, stack(0x000000001ea80000,0x000000001eb80000)]
  0x000000001fd99800 JavaThread "Cache worker for checksums cache (F:\Android\Android_repos\Protein\.gradle\checksums)" [_thread_blocked, id=12500, stack(0x000000001e980000,0x000000001ea80000)]
  0x000000001fd98000 JavaThread "Thread-43" [_thread_blocked, id=7876, stack(0x000000001cbb0000,0x000000001ccb0000)]
  0x000000001fd97800 JavaThread "Stdin handler" [_thread_blocked, id=5900, stack(0x000000001cab0000,0x000000001cbb0000)]
  0x000000001fd96800 JavaThread "Asynchronous log dispatcher for DefaultDaemonConnection: socket connection from /127.0.0.1:61979 to /127.0.0.1:62370" [_thread_blocked, id=13292, stack(0x000000001c9b0000,0x000000001cab0000)]
  0x000000001fd99000 JavaThread "Daemon worker Thread 2" [_thread_blocked, id=12904, stack(0x000000001c8b0000,0x000000001c9b0000)]
  0x000000001fd96000 JavaThread "Cancel handler" [_thread_blocked, id=13308, stack(0x000000001c7b0000,0x000000001c8b0000)]
  0x000000001fd9a800 JavaThread "Handler for socket connection from /127.0.0.1:61979 to /127.0.0.1:62370" [_thread_in_native, id=10268, stack(0x000000001c4b0000,0x000000001c5b0000)]
  0x000000001fd9c000 JavaThread "Daemon Thread 2" [_thread_blocked, id=6644, stack(0x000000001c3b0000,0x000000001c4b0000)]
  0x000000001b72c000 JavaThread "Cache worker for Java compile cache (C:\Users\zvona\.gradle\caches\6.1.1\javaCompile)" [_thread_blocked, id=9432, stack(0x00000000006d0000,0x00000000007d0000)]
  0x000000001f481000 JavaThread "Cache worker for file content cache (C:\Users\zvona\.gradle\caches\6.1.1\fileContent)" [_thread_blocked, id=12996, stack(0x0000000022ea0000,0x0000000022fa0000)]
  0x000000001f481800 JavaThread "Memory manager" [_thread_blocked, id=5216, stack(0x0000000022da0000,0x0000000022ea0000)]
  0x0000000018f24000 JavaThread "Cache worker for execution history cache (C:\Users\zvona\.gradle\caches\6.1.1\executionHistory)" [_thread_blocked, id=1556, stack(0x000000001eb80000,0x000000001ec80000)]
  0x0000000018f20800 JavaThread "Cache worker for file hash cache (C:\Users\zvona\.gradle\caches\6.1.1\fileHashes)" [_thread_blocked, id=8224, stack(0x000000001d0b0000,0x000000001d1b0000)]
  0x0000000018f22800 JavaThread "File lock request listener" [_thread_in_native, id=6280, stack(0x000000001cfb0000,0x000000001d0b0000)]
  0x0000000018f1f800 JavaThread "Cache worker for journal cache (C:\Users\zvona\.gradle\caches\journal-1)" [_thread_blocked, id=11272, stack(0x000000001ceb0000,0x000000001cfb0000)]
  0x000000001a1d6800 JavaThread "Daemon periodic checks" [_thread_blocked, id=8256, stack(0x000000001c2b0000,0x000000001c3b0000)]
  0x0000000019edf800 JavaThread "Incoming local TCP Connector on port 61979" [_thread_in_native, id=3616, stack(0x0000000019340000,0x0000000019440000)]
  0x0000000019025800 JavaThread "Daemon health stats" [_thread_blocked, id=11712, stack(0x0000000019240000,0x0000000019340000)]
  0x0000000018c70800 JavaThread "Service Thread" daemon [_thread_blocked, id=11012, stack(0x0000000019040000,0x0000000019140000)]
  0x00000000172fd800 JavaThread "C1 CompilerThread2" daemon [_thread_in_native, id=5672, stack(0x0000000018b40000,0x0000000018c40000)]
=>0x00000000172fa800 JavaThread "C2 CompilerThread1" daemon [_thread_in_native, id=10420, stack(0x0000000018a40000,0x0000000018b40000)]
  0x00000000172f6000 JavaThread "C2 CompilerThread0" daemon [_thread_blocked, id=10020, stack(0x0000000018940000,0x0000000018a40000)]
  0x00000000172f4000 JavaThread "Attach Listener" daemon [_thread_blocked, id=13076, stack(0x0000000018840000,0x0000000018940000)]
  0x00000000172f3000 JavaThread "Signal Dispatcher" daemon [_thread_blocked, id=10536, stack(0x0000000018740000,0x0000000018840000)]
  0x00000000026ca000 JavaThread "Finalizer" daemon [_thread_blocked, id=6868, stack(0x0000000018540000,0x0000000018640000)]
  0x00000000026c1000 JavaThread "Reference Handler" daemon [_thread_blocked, id=2520, stack(0x0000000018440000,0x0000000018540000)]
  0x000000000259d800 JavaThread "main" [_thread_blocked, id=7860, stack(0x00000000023e0000,0x00000000024e0000)]

Other Threads:
  0x00000000172b6800 VMThread [stack: 0x0000000018340000,0x0000000018440000] [id=10060]
  0x000000001734e800 WatcherThread [stack: 0x0000000019140000,0x0000000019240000] [id=10592]

VM state:not at safepoint (normal execution)

VM Mutex/Monitor currently owned by a thread: None

heap address: 0x0000000080000000, size: 2048 MB, Compressed Oops mode: 32-bit
Narrow klass base: 0x0000000000000000, Narrow klass shift: 3
Compressed class space size: 1073741824 Address: 0x0000000100000000

Heap:
 PSYoungGen      total 217600K, used 12064K [0x00000000d5580000, 0x00000000e7000000, 0x0000000100000000)
  eden space 167936K, 7% used [0x00000000d5580000,0x00000000d61482c0,0x00000000df980000)
  from space 49664K, 0% used [0x00000000df980000,0x00000000df980000,0x00000000e2a00000)
  to   space 47104K, 0% used [0x00000000e4200000,0x00000000e4200000,0x00000000e7000000)
 ParOldGen       total 209920K, used 68525K [0x0000000080000000, 0x000000008cd00000, 0x00000000d5580000)
  object space 209920K, 32% used [0x0000000080000000,0x00000000842eb5c0,0x000000008cd00000)
 Metaspace       used 92291K, capacity 96424K, committed 97456K, reserved 1134592K
  class space    used 12105K, capacity 12934K, committed 13232K, reserved 1048576K

Card table byte_map: [0x0000000011a90000,0x0000000011ea0000] byte_map_base: 0x0000000011690000

Marking Bits: (ParMarkBitMap*) 0x000000005e2ff030
 Begin Bits: [0x0000000012550000, 0x0000000014550000)
 End Bits:   [0x0000000014550000, 0x0000000016550000)

Polling page: 0x0000000000b80000

CodeCache: size=245760Kb used=47028Kb max_used=47039Kb free=198731Kb
 bounds [0x00000000026d0000, 0x0000000005500000, 0x00000000116d0000]
 total_blobs=15080 nmethods=14194 adapters=794
 compilation: enabled

Compilation events (10 events):
Event: 753.849 Thread 0x00000000172fa800 17439       4       java.util.IdentityHashMap$KeySpliterator::forEachRemaining (112 bytes)
Event: 753.854 Thread 0x00000000172fa800 nmethod 17439 0x00000000035e6710 code [0x00000000035e6860, 0x00000000035e6bd8]
Event: 753.854 Thread 0x00000000172fa800 17443       4       com.android.tools.r8.graph.h0$u::equals (52 bytes)
Event: 753.855 Thread 0x00000000172fa800 nmethod 17443 0x000000000317ffd0 code [0x0000000003180120, 0x0000000003180278]
Event: 753.855 Thread 0x00000000172fa800 17438       4       com.android.tools.r8.graph.H0::a (117 bytes)
Event: 753.859 Thread 0x00000000172fd800 17448   !   3       com.android.tools.r8.dex.r::b (2682 bytes)
Event: 753.862 Thread 0x00000000172f6000 nmethod 17441 0x00000000054f0110 code [0x00000000054f02a0, 0x00000000054f1778]
Event: 753.862 Thread 0x00000000172f6000 17446   !   4       com.android.tools.r8.graph.b0::Y (214 bytes)
Event: 753.887 Thread 0x00000000172f6000 nmethod 17446 0x00000000054f2290 code [0x00000000054f26a0, 0x00000000054f3a58]
Event: 753.887 Thread 0x00000000172f6000 17452       4       com.android.tools.r8.dex.r::a (156 bytes)

GC Heap History (10 events):
Event: 99.413 GC heap before
{Heap before GC invocations=25 (full 3):
 PSYoungGen      total 164864K, used 160722K [0x00000000d5580000, 0x00000000e2600000, 0x0000000100000000)
  eden space 137216K, 100% used [0x00000000d5580000,0x00000000ddb80000,0x00000000ddb80000)
  from space 27648K, 85% used [0x00000000ddb80000,0x00000000df274ab8,0x00000000df680000)
  to   space 30208K, 0% used [0x00000000e0880000,0x00000000e0880000,0x00000000e2600000)
 ParOldGen       total 137728K, used 58636K [0x0000000080000000, 0x0000000088680000, 0x00000000d5580000)
  object space 137728K, 42% used [0x0000000080000000,0x0000000083943210,0x0000000088680000)
 Metaspace       used 85021K, capacity 89332K, committed 89648K, reserved 1126400K
  class space    used 11398K, capacity 12230K, committed 12336K, reserved 1048576K
Event: 99.690 GC heap after
Heap after GC invocations=25 (full 3):
 PSYoungGen      total 166912K, used 30184K [0x00000000d5580000, 0x00000000e5880000, 0x0000000100000000)
  eden space 136704K, 0% used [0x00000000d5580000,0x00000000d5580000,0x00000000ddb00000)
  from space 30208K, 99% used [0x00000000e0880000,0x00000000e25fa3d8,0x00000000e2600000)
  to   space 46592K, 0% used [0x00000000ddb00000,0x00000000ddb00000,0x00000000e0880000)
 ParOldGen       total 137728K, used 92087K [0x0000000080000000, 0x0000000088680000, 0x00000000d5580000)
  object space 137728K, 66% used [0x0000000080000000,0x00000000859edf28,0x0000000088680000)
 Metaspace       used 85021K, capacity 89332K, committed 89648K, reserved 1126400K
  class space    used 11398K, capacity 12230K, committed 12336K, reserved 1048576K
}
Event: 101.888 GC heap before
{Heap before GC invocations=26 (full 3):
 PSYoungGen      total 166912K, used 166594K [0x00000000d5580000, 0x00000000e5880000, 0x0000000100000000)
  eden space 136704K, 99% used [0x00000000d5580000,0x00000000ddab6738,0x00000000ddb00000)
  from space 30208K, 99% used [0x00000000e0880000,0x00000000e25fa3d8,0x00000000e2600000)
  to   space 46592K, 0% used [0x00000000ddb00000,0x00000000ddb00000,0x00000000e0880000)
 ParOldGen       total 137728K, used 92087K [0x0000000080000000, 0x0000000088680000, 0x00000000d5580000)
  object space 137728K, 66% used [0x0000000080000000,0x00000000859edf28,0x0000000088680000)
 Metaspace       used 85137K, capacity 89396K, committed 89648K, reserved 1126400K
  class space    used 11398K, capacity 12230K, committed 12336K, reserved 1048576K
Event: 101.954 GC heap after
Heap after GC invocations=26 (full 3):
 PSYoungGen      total 183296K, used 35851K [0x00000000d5580000, 0x00000000e5f80000, 0x0000000100000000)
  eden space 136704K, 0% used [0x00000000d5580000,0x00000000d5580000,0x00000000ddb00000)
  from space 46592K, 76% used [0x00000000ddb00000,0x00000000dfe02f40,0x00000000e0880000)
  to   space 50176K, 0% used [0x00000000e2e80000,0x00000000e2e80000,0x00000000e5f80000)
 ParOldGen       total 137728K, used 102055K [0x0000000080000000, 0x0000000088680000, 0x00000000d5580000)
  object space 137728K, 74% used [0x0000000080000000,0x00000000863a9e60,0x0000000088680000)
 Metaspace       used 85137K, capacity 89396K, committed 89648K, reserved 1126400K
  class space    used 11398K, capacity 12230K, committed 12336K, reserved 1048576K
}
Event: 747.298 GC heap before
{Heap before GC invocations=27 (full 3):
 PSYoungGen      total 183296K, used 172555K [0x00000000d5580000, 0x00000000e5f80000, 0x0000000100000000)
  eden space 136704K, 100% used [0x00000000d5580000,0x00000000ddb00000,0x00000000ddb00000)
  from space 46592K, 76% used [0x00000000ddb00000,0x00000000dfe02f40,0x00000000e0880000)
  to   space 50176K, 0% used [0x00000000e2e80000,0x00000000e2e80000,0x00000000e5f80000)
 ParOldGen       total 137728K, used 102055K [0x0000000080000000, 0x0000000088680000, 0x00000000d5580000)
  object space 137728K, 74% used [0x0000000080000000,0x00000000863a9e60,0x0000000088680000)
 Metaspace       used 91949K, capacity 96638K, committed 96816K, reserved 1132544K
  class space    used 12182K, capacity 13101K, committed 13104K, reserved 1048576K
Event: 747.356 GC heap after
Heap after GC invocations=27 (full 3):
 PSYoungGen      total 212992K, used 27341K [0x00000000d5580000, 0x00000000e5a80000, 0x0000000100000000)
  eden space 167936K, 0% used [0x00000000d5580000,0x00000000d5580000,0x00000000df980000)
  from space 45056K, 60% used [0x00000000e2e80000,0x00000000e4933788,0x00000000e5a80000)
  to   space 49664K, 0% used [0x00000000df980000,0x00000000df980000,0x00000000e2a00000)
 ParOldGen       total 137728K, used 106953K [0x0000000080000000, 0x0000000088680000, 0x00000000d5580000)
  object space 137728K, 77% used [0x0000000080000000,0x0000000086872418,0x0000000088680000)
 Metaspace       used 91949K, capacity 96638K, committed 96816K, reserved 1132544K
  class space    used 12182K, capacity 13101K, committed 13104K, reserved 1048576K
}
Event: 753.192 GC heap before
{Heap before GC invocations=28 (full 3):
 PSYoungGen      total 212992K, used 195277K [0x00000000d5580000, 0x00000000e5a80000, 0x0000000100000000)
  eden space 167936K, 100% used [0x00000000d5580000,0x00000000df980000,0x00000000df980000)
  from space 45056K, 60% used [0x00000000e2e80000,0x00000000e4933788,0x00000000e5a80000)
  to   space 49664K, 0% used [0x00000000df980000,0x00000000df980000,0x00000000e2a00000)
 ParOldGen       total 137728K, used 106953K [0x0000000080000000, 0x0000000088680000, 0x00000000d5580000)
  object space 137728K, 77% used [0x0000000080000000,0x0000000086872418,0x0000000088680000)
 Metaspace       used 92604K, capacity 97300K, committed 97456K, reserved 1134592K
  class space    used 12212K, capacity 13122K, committed 13232K, reserved 1048576K
Event: 753.234 GC heap after
Heap after GC invocations=28 (full 3):
 PSYoungGen      total 217600K, used 19555K [0x00000000d5580000, 0x00000000e7000000, 0x0000000100000000)
  eden space 167936K, 0% used [0x00000000d5580000,0x00000000d5580000,0x00000000df980000)
  from space 49664K, 39% used [0x00000000df980000,0x00000000e0c98d88,0x00000000e2a00000)
  to   space 47104K, 0% used [0x00000000e4200000,0x00000000e4200000,0x00000000e7000000)
 ParOldGen       total 137728K, used 119144K [0x0000000080000000, 0x0000000088680000, 0x00000000d5580000)
  object space 137728K, 86% used [0x0000000080000000,0x000000008745a330,0x0000000088680000)
 Metaspace       used 92604K, capacity 97300K, committed 97456K, reserved 1134592K
  class space    used 12212K, capacity 13122K, committed 13232K, reserved 1048576K
}
Event: 753.234 GC heap before
{Heap before GC invocations=29 (full 4):
 PSYoungGen      total 217600K, used 19555K [0x00000000d5580000, 0x00000000e7000000, 0x0000000100000000)
  eden space 167936K, 0% used [0x00000000d5580000,0x00000000d5580000,0x00000000df980000)
  from space 49664K, 39% used [0x00000000df980000,0x00000000e0c98d88,0x00000000e2a00000)
  to   space 47104K, 0% used [0x00000000e4200000,0x00000000e4200000,0x00000000e7000000)
 ParOldGen       total 137728K, used 119144K [0x0000000080000000, 0x0000000088680000, 0x00000000d5580000)
  object space 137728K, 86% used [0x0000000080000000,0x000000008745a330,0x0000000088680000)
 Metaspace       used 92604K, capacity 97300K, committed 97456K, reserved 1134592K
  class space    used 12212K, capacity 13122K, committed 13232K, reserved 1048576K
Event: 753.638 GC heap after
Heap after GC invocations=29 (full 4):
 PSYoungGen      total 217600K, used 0K [0x00000000d5580000, 0x00000000e7000000, 0x0000000100000000)
  eden space 167936K, 0% used [0x00000000d5580000,0x00000000d5580000,0x00000000df980000)
  from space 49664K, 0% used [0x00000000df980000,0x00000000df980000,0x00000000e2a00000)
  to   space 47104K, 0% used [0x00000000e4200000,0x00000000e4200000,0x00000000e7000000)
 ParOldGen       total 209920K, used 68525K [0x0000000080000000, 0x000000008cd00000, 0x00000000d5580000)
  object space 209920K, 32% used [0x0000000080000000,0x00000000842eb5c0,0x000000008cd00000)
 Metaspace       used 92286K, capacity 96424K, committed 97456K, reserved 1134592K
  class space    used 12105K, capacity 12934K, committed 13232K, reserved 1048576K
}

Deoptimization events (10 events):
Event: 752.465 Thread 0x000000001fd99000 Uncommon trap: reason=bimorphic action=maybe_recompile pc=0x0000000003f5d278 method=java.io.ObjectInputStream$PeekInputStream.read()I @ 23
Event: 752.659 Thread 0x000000001b727800 Uncommon trap: reason=speculate_class_check action=maybe_recompile pc=0x0000000003bd082c method=java.util.HashMap.putVal(ILjava/lang/Object;Ljava/lang/Object;ZZ)Ljava/lang/Object; @ 295
Event: 752.659 Thread 0x000000001b727800 Uncommon trap: reason=speculate_class_check action=maybe_recompile pc=0x0000000003bd08a4 method=java.util.HashMap.putVal(ILjava/lang/Object;Ljava/lang/Object;ZZ)Ljava/lang/Object; @ 253
Event: 752.664 Thread 0x000000001b727800 Uncommon trap: reason=unstable_if action=reinterpret pc=0x0000000004bdea2c method=com.android.tools.r8.u.b.m1.L()Z @ 14
Event: 752.692 Thread 0x000000001b727800 Uncommon trap: reason=null_check action=make_not_entrant pc=0x0000000002856574 method=com.android.tools.r8.s.a.b.h.a(Ljava/lang/Object;)V @ 71
Event: 752.695 Thread 0x000000001b727800 Uncommon trap: reason=unstable_if action=reinterpret pc=0x00000000048d1214 method=com.android.tools.r8.v.a.a.a.h.K$f.hasNext()Z @ 5
Event: 752.711 Thread 0x000000001b727800 Uncommon trap: reason=unstable_if action=reinterpret pc=0x000000000492ac40 method=com.android.tools.r8.v.a.a.a.h.K.a(Ljava/lang/Object;I)I @ 130
Event: 752.845 Thread 0x0000000018f1f800 Uncommon trap: reason=unstable_if action=reinterpret pc=0x0000000004758a10 method=java.util.concurrent.locks.LockSupport.unpark(Ljava/lang/Thread;)V @ 1
Event: 753.021 Thread 0x000000001b724800 Uncommon trap: reason=unstable_if action=reinterpret pc=0x00000000044f3f94 method=java.util.regex.Pattern$SliceU.match(Ljava/util/regex/Matcher;ILjava/lang/CharSequence;)Z @ 18
Event: 753.860 Thread 0x000000001b728800 Uncommon trap: reason=unstable_if action=reinterpret pc=0x0000000004cdf5b0 method=com.android.tools.r8.dex.m.c(I)V @ 8

Classes redefined (0 events):
No events

Internal exceptions (10 events):
Event: 749.988 Thread 0x000000001b72b800 Exception <a 'sun/nio/fs/WindowsException'> (0x00000000db13b910) thrown at [C:\src\AOSP-openjdk-git\hotspot\src\share\vm\prims\jni.cpp, line 710]
Event: 749.988 Thread 0x000000001b72b800 Exception <a 'sun/nio/fs/WindowsException'> (0x00000000db13c5a0) thrown at [C:\src\AOSP-openjdk-git\hotspot\src\share\vm\prims\jni.cpp, line 710]
Event: 749.988 Thread 0x000000001b72b800 Exception <a 'sun/nio/fs/WindowsException'> (0x00000000db13d2d0) thrown at [C:\src\AOSP-openjdk-git\hotspot\src\share\vm\prims\jni.cpp, line 710]
Event: 750.042 Thread 0x000000001b72b800 Exception <a 'java/lang/NoSuchMethodError': java.lang.Object.lambda$comparingByKey$bbdbfea9$1(Ljava/util/Map$Entry;Ljava/util/Map$Entry;)I> (0x00000000db1c3b30) thrown at [C:\src\AOSP-openjdk-git\hotspot\src\share\vm\interpreter\linkResolver.cpp, line 620
Event: 752.654 Thread 0x000000001b727800 Exception <a 'sun/nio/fs/WindowsException'> (0x00000000de151240) thrown at [C:\src\AOSP-openjdk-git\hotspot\src\share\vm\prims\jni.cpp, line 710]
Event: 752.699 Thread 0x000000001b727800 Exception <a 'sun/nio/fs/WindowsException'> (0x00000000de29ea40) thrown at [C:\src\AOSP-openjdk-git\hotspot\src\share\vm\prims\jni.cpp, line 710]
Event: 752.711 Thread 0x000000001b727800 Exception <a 'sun/nio/fs/WindowsException'> (0x00000000de2a5a20) thrown at [C:\src\AOSP-openjdk-git\hotspot\src\share\vm\prims\jni.cpp, line 710]
Event: 752.718 Thread 0x000000001b727800 Exception <a 'sun/nio/fs/WindowsException'> (0x00000000de36d568) thrown at [C:\src\AOSP-openjdk-git\hotspot\src\share\vm\prims\jni.cpp, line 710]
Event: 753.096 Thread 0x000000001b724800 Exception <a 'sun/nio/fs/WindowsException'> (0x00000000dec33880) thrown at [C:\src\AOSP-openjdk-git\hotspot\src\share\vm\prims\jni.cpp, line 710]
Event: 753.884 Thread 0x000000001b728800 Exception <a 'sun/nio/fs/WindowsException'> (0x00000000d5f72b90) thrown at [C:\src\AOSP-openjdk-git\hotspot\src\share\vm\prims\jni.cpp, line 710]

Events (10 events):
Event: 753.885 Executing VM operation: RevokeBias
Event: 753.885 Executing VM operation: RevokeBias done
Event: 753.885 Thread 0x000000001b72e800 Thread exited: 0x000000001b72e800
Event: 753.885 Executing VM operation: RevokeBias
Event: 753.886 Executing VM operation: RevokeBias done
Event: 753.886 Executing VM operation: RevokeBias
Event: 753.886 Executing VM operation: RevokeBias done
Event: 753.886 Thread 0x000000001b72f800 Thread exited: 0x000000001b72f800
Event: 753.886 Thread 0x000000001b728800 Thread exited: 0x000000001b728800
Event: 753.886 Thread 0x000000001b733000 Thread exited: 0x000000001b733000


Dynamic libraries:
0x00007ff67e710000 - 0x00007ff67e741000 	F:\Android Studio\jre\bin\java.exe
0x00007ffba5dd0000 - 0x00007ffba5fc6000 	C:\Windows\SYSTEM32\ntdll.dll
0x00007ffba5090000 - 0x00007ffba514d000 	C:\Windows\System32\KERNEL32.DLL
0x00007ffba3880000 - 0x00007ffba3b49000 	C:\Windows\System32\KERNELBASE.dll
0x00007ffba4f70000 - 0x00007ffba501c000 	C:\Windows\System32\ADVAPI32.dll
0x00007ffba3e70000 - 0x00007ffba3f0e000 	C:\Windows\System32\msvcrt.dll
0x00007ffba3f10000 - 0x00007ffba3fac000 	C:\Windows\System32\sechost.dll
0x00007ffba4910000 - 0x00007ffba4a3b000 	C:\Windows\System32\RPCRT4.dll
0x00007ffba4770000 - 0x00007ffba4910000 	C:\Windows\System32\USER32.dll
0x00007ffba3750000 - 0x00007ffba3772000 	C:\Windows\System32\win32u.dll
0x00007ffba5610000 - 0x00007ffba563a000 	C:\Windows\System32\GDI32.dll
0x00007ffba3c30000 - 0x00007ffba3d3b000 	C:\Windows\System32\gdi32full.dll
0x00007ffba3d40000 - 0x00007ffba3ddd000 	C:\Windows\System32\msvcp_win.dll
0x00007ffba3780000 - 0x00007ffba3880000 	C:\Windows\System32\ucrtbase.dll
0x00007ffb89bf0000 - 0x00007ffb89e8b000 	C:\Windows\WinSxS\amd64_microsoft.windows.common-controls_6595b64144ccf1df_6.0.19041.746_none_ca02b4b61b8320a4\COMCTL32.dll
0x00007ffba3e40000 - 0x00007ffba3e70000 	C:\Windows\System32\IMM32.DLL
0x000000005fb00000 - 0x000000005fbd2000 	F:\Android Studio\jre\jre\bin\msvcr100.dll
0x000000005db30000 - 0x000000005e37b000 	F:\Android Studio\jre\jre\bin\server\jvm.dll
0x00007ffba44d0000 - 0x00007ffba44d8000 	C:\Windows\System32\PSAPI.DLL
0x00007ffb985d0000 - 0x00007ffb985f7000 	C:\Windows\SYSTEM32\WINMM.dll
0x00007ffb9d080000 - 0x00007ffb9d08a000 	C:\Windows\SYSTEM32\VERSION.dll
0x00007ffb9f2d0000 - 0x00007ffb9f2d9000 	C:\Windows\SYSTEM32\WSOCK32.dll
0x00007ffba5020000 - 0x00007ffba508b000 	C:\Windows\System32\WS2_32.dll
0x00007ffb9de20000 - 0x00007ffb9de2f000 	F:\Android Studio\jre\jre\bin\verify.dll
0x00007ffb8dac0000 - 0x00007ffb8dae9000 	F:\Android Studio\jre\jre\bin\java.dll
0x00007ffb9a1d0000 - 0x00007ffb9a1e6000 	F:\Android Studio\jre\jre\bin\zip.dll
0x00007ffba5640000 - 0x00007ffba5d83000 	C:\Windows\System32\SHELL32.dll
0x00007ffba1670000 - 0x00007ffba1dff000 	C:\Windows\SYSTEM32\windows.storage.dll
0x00007ffba5150000 - 0x00007ffba54a6000 	C:\Windows\System32\combase.dll
0x00007ffba2ea0000 - 0x00007ffba2ecc000 	C:\Windows\SYSTEM32\Wldp.dll
0x00007ffba4660000 - 0x00007ffba470e000 	C:\Windows\System32\SHCORE.dll
0x00007ffba44e0000 - 0x00007ffba4535000 	C:\Windows\System32\shlwapi.dll
0x00007ffba3440000 - 0x00007ffba3466000 	C:\Windows\SYSTEM32\profapi.dll
0x00007ffb97080000 - 0x00007ffb9709a000 	F:\Android Studio\jre\jre\bin\net.dll
0x00007ffba2c20000 - 0x00007ffba2c8a000 	C:\Windows\system32\mswsock.dll
0x00007ffb96650000 - 0x00007ffb96663000 	F:\Android Studio\jre\jre\bin\nio.dll
0x00007ffb8dee0000 - 0x00007ffb8df06000 	C:\Users\zvona\.gradle\native\31\windows-amd64\native-platform.dll
0x00007ffb9ce20000 - 0x00007ffb9ce2d000 	F:\Android Studio\jre\jre\bin\management.dll
0x00007ffba2df0000 - 0x00007ffba2e08000 	C:\Windows\SYSTEM32\CRYPTSP.dll
0x00007ffba25c0000 - 0x00007ffba25f4000 	C:\Windows\system32\rsaenh.dll
0x00007ffba3720000 - 0x00007ffba3747000 	C:\Windows\System32\bcrypt.dll
0x00007ffba3390000 - 0x00007ffba33be000 	C:\Windows\SYSTEM32\USERENV.dll
0x00007ffba3bb0000 - 0x00007ffba3c30000 	C:\Windows\System32\bcryptprimitives.dll
0x00007ffba2e10000 - 0x00007ffba2e1c000 	C:\Windows\SYSTEM32\CRYPTBASE.dll
0x00007ffba2910000 - 0x00007ffba294b000 	C:\Windows\SYSTEM32\IPHLPAPI.DLL
0x00007ffba4080000 - 0x00007ffba4088000 	C:\Windows\System32\NSI.dll
0x00007ffb9d370000 - 0x00007ffb9d387000 	C:\Windows\SYSTEM32\dhcpcsvc6.DLL
0x00007ffb9d6e0000 - 0x00007ffb9d6fd000 	C:\Windows\SYSTEM32\dhcpcsvc.DLL
0x00007ffba2950000 - 0x00007ffba2a1b000 	C:\Windows\SYSTEM32\DNSAPI.dll

VM Arguments:
jvm_args: -Xmx2048m -Dfile.encoding=windows-1250 -Duser.country=HR -Duser.language=hr -Duser.variant 
java_command: org.gradle.launcher.daemon.bootstrap.GradleDaemon 6.1.1
java_class_path (initial): C:\Users\zvona\.gradle\wrapper\dists\gradle-6.1.1-all\cfmwm155h49vnt3hynmlrsdst\gradle-6.1.1\lib\gradle-launcher-6.1.1.jar
Launcher Type: SUN_STANDARD

Environment Variables:
PATH=C:\Program Files (x86)\Common Files\Oracle\Java\javapath;C:\Windows\system32;C:\Windows;C:\Windows\System32\Wbem;C:\Windows\System32\WindowsPowerShell\v1.0\;C:\Windows\System32\OpenSSH\;C:\Program Files\dotnet\;C:\Program Files\Microsoft SQL Server\130\Tools\Binn\;C:\Program Files\Microsoft SQL Server\Client SDK\ODBC\170\Tools\Binn\;F:\Node_js\;C:\Program Files\NVIDIA Corporation\NVIDIA NvDLISR;C:\Program Files (x86)\NVIDIA Corporation\PhysX\Common;C:\Users\zvona\AppData\Local\Microsoft\WindowsApps;C:\Users\zvona\.dotnet\tools;F:\Microsoft VS Code\bin;C:\Users\zvona\AppData\Roaming\npm
USERNAME=zvona
OS=Windows_NT
PROCESSOR_IDENTIFIER=Intel64 Family 6 Model 142 Stepping 9, GenuineIntel



---------------  S Y S T E M  ---------------

OS: Windows 10.0 , 64 bit Build 19041 (10.0.19041.662)

CPU:total 4 (initial active 4) (2 cores per cpu, 2 threads per core) family 6 model 142 stepping 9, cmov, cx8, fxsr, mmx, sse, sse2, sse3, ssse3, sse4.1, sse4.2, popcnt, avx, avx2, aes, clmul, erms, 3dnowpref, lzcnt, ht, tsc, tscinvbit, bmi1, bmi2, adx

Memory: 4k page, physical 8253668k(239652k free), swap 9975012k(2224k free)

vm_info: OpenJDK 64-Bit Server VM (25.242-b01) for windows-amd64 JRE (1.8.0_242-release-1644-b01), built by "builder" with MS VC++ 10.0 (VS2010)

time: Thu Jan 21 13:15:10 2021
timezone: Srednja Europa - st. vrij.
elapsed time: 754 seconds (0d 0h 12m 34s)

